INDEX VERSION 1.130+G:\workspace\SpringBoot\.metadata\.plugins\org.eclipse.jdt.core
475551421.index
850567125.index
3216175387.index
1267809112.index
1557603347.index
2070326887.index
4172891320.index
761508849.index
4084803682.index
1387539947.index
746653826.index
3101364771.index
1821549305.index
4258313035.index
2417023056.index
3283088957.index
2087322791.index
3103507522.index
1782015859.index
1136989993.index
209794987.index
3390941886.index
2781118073.index
1216792078.index
3579291116.index
394800890.index
3425225883.index
3272895395.index
2593519264.index
2761448768.index
3695090295.index
1459410758.index
1401028438.index
368425230.index
3734050359.index
2780540537.index
2998369635.index
2791091735.index
3071152934.index
1055726575.index
3448122315.index
3761289246.index
3325046840.index
2871722055.index
3575506481.index
4185714853.index
1097365877.index
2841315979.index
2028556677.index
3875148992.index
108943690.index
2322272122.index
111305976.index
2157039520.index
1046339047.index
13051868.index
2956239166.index
2506197862.index
2469100999.index
842753039.index
2664247221.index
1061245191.index
2311654983.index
2673481726.index
2476091561.index
2361668375.index
367495081.index
2687468697.index
4109462314.index
2012985667.index
906698450.index
1700422968.index
2829423976.index
2076255547.index
2143835185.index
2092698943.index
3823115747.index
1831540551.index
874662205.index
3344868835.index
1238182466.index
268881504.index
3843485051.index
104198388.index
552090503.index
2118618934.index
3714399920.index
4019787528.index
1738741152.index
2236064916.index
799905038.index
696353766.index
2595158783.index
3271084688.index
2620612944.index
2041557236.index
788018141.index
2676236981.index
401767355.index
3861479635.index
2741413419.index
1382034071.index
3720368861.index
2260003217.index
2877841743.index
270113715.index
3776121238.index
3651036973.index
3176240294.index
3551055555.index
1170735233.index
1264099600.index
1040030118.index
3230856569.index
3002104685.index
1768259474.index
2533941713.index
2315947574.index
969842309.index
3059817278.index
1595505118.index
466418608.index
1710871557.index
3435648363.index
400382302.index
4038663971.index
2295540124.index
2967780735.index
2106562353.index
1206616048.index
1772910194.index
495581332.index
251354941.index
68629501.index
2228406239.index
3413395177.index
1350081825.index
3796415748.index
4030639850.index
3531058009.index
531195076.index
2766909474.index
4008215922.index
1286025550.index
3983441265.index
3660933616.index
3489989682.index
2591080945.index
2936509352.index
182659324.index
916364839.index
3384110747.index
3245896058.index
3796588777.index
356557674.index
2896684707.index
2546247353.index
2819394881.index
3929566945.index
1801169546.index
1963164706.index
753328588.index
1918363804.index
2920420547.index
971213141.index
1112209242.index
1342908693.index
852640311.index
481891625.index
103181949.index
3822327668.index
2090234381.index
2374812040.index
1786864989.index
2886025704.index
1553022892.index
34974100.index
386107632.index
3738583518.index
3399924989.index
2481622754.index
673145883.index
2297576936.index
326813946.index
